    0.360227
    0.186727
    0.121949
    0.091885
    0.0728603
    0.0615492
    0.0532642
    0.0467348
    0.0414106
    0.037617
    0.0340472
    0.0314
    0.0292362
    0.027184
    0.0258033
    0.0240551
    0.0226729
    0.021456
    0.020347
    0.0193648
    0.0184963
    0.0176574
    0.0170466
    0.0163863
    0.0157789
    0.0151348
    0.0145606
    0.0141227
    0.0137061
    0.0133217
    0.0129898
    0.0125262
    0.0122566
    0.0118275
    0.0116869
    0.0112198
    0.0110746
    0.0110596
    0.0110986
    0.0111153
    0.0111519
    0.0111804
    0.0112242
    0.0113322
    0.0113147
    0.0115607
    0.0116081
    0.0115932
    0.011415
    0.0116058
    0.011457
    0.0115564
    0.0113708
    0.0113859
    0.0114347
    0.0134998
