 0.9989526963722768
 1.939307943905815
 2.908353126332316
 3.767266577755238
 4.708098114385521
 5.648536102375613
 6.5885807886052214
 7.321033362323366
 8.234441024592652
 9.147466928971344
 10.060111314742471
 10.97237442098914
 11.884256486594726
 12.795757750243085
 13.706878450418781
 14.22607546401243
 15.11205110133184
 15.997657063970967
 16.882893583252535
 17.767760890306306
 18.652259216069286
 19.536388791285926
 20.420149846508316
 21.303542612096397
 22.186567318218145
 23.069224194849788
 23.951513471775993
 24.833435378590078
 25.714990144694188
 26.596177999299535
 27.47699917142653
 27.6176942232119
 28.47482388641706
 29.33159710079895
 30.18801408866236
 31.044075072127242
 31.89978027312895
 32.75512991341837
 33.61012421456216
 34.464763397942924
 35.31904768475942
 36.172977296026694
 37.02655245257634
 37.87977337505666
 38.73264028393284
 39.58515339948718
 40.437312941819265
 41.28911913084608
 42.14057218630237
 42.99167232774064
 43.842419774531486
 44.69281474586369
 45.542857460744486
 46.39254813799965
 47.24188699627383
 48.09087425403055
 48.93951012955259
 49.78779484094201
 50.635728606120466
 51.48331164282928
 52.3305441686297
 53.17742640090311
 54.02395855685113
