1.0
0                  
0                  
0                  
0                  
0                  
0                  
0                  
0                  
0                  
0                  
0                  
1.2677870354844492
2.2991323039819647
3.6959856383113214
4.756071372794003
5.968177883751694
7.014918449223523
8.213909092101048
9.234788212154267
10.471088549078788
11.654034431257076
12.860762686265137
13.861318852215472
15.209768380746258
16.18197316565558
17.24738059278837
18.31063250546991
19.500313499139544
20.398978481118647
21.665291563122192
22.698803786886685
23.87466109169307
24.720675114999548
25.71451189191725
26.75760275309968
27.959131626765277
29.153176750586688
30.234971283585793
31.114083197933887
32.23500441046751
33.26973120196648
34.065750530183564
35.39831938199753
36.14554656204151
37.32127659574468
38.45698500394633
39.04803034620316
40.5025353049293
40.868296956254305
42.20360514691022
42.95853292973227
43.900527176731345
44.91027162764594
46.05131199376636
46.489180352894785
47.52648759721512
48.30852682264786
49.645651017196684
50.01693749550899
50.83004144991237
52.05625316059002
53.100093722074085
