  1   1.2868373  1.2836     1.2859352  1.2858359   1.2858999  1.28559434077092  1.28241883628283 1.27506448393883 1.266412338491732 1.25651667934159
  2   2.5594523  2.56097    2.469475   2.5679915   2.528425   2.56451727111279  2.55749535564396 2.54148013672195 2.522922496837352 2.50193759965352
  3   3.8291907  3.7699757  3.5504694  3.822863    3.8053255  3.83576517880050  3.82424335770637 3.79829977005660 3.768627380744586 3.73540819041002
  4   4.387621   5.0332465  4.8714495  4.8945856   4.9226785  4.37921458918330  5.08170205838538 5.04460508401692 5.002655827753154 4.95610839835398
  5   4.384845   6.2594256  6.045068   5.893076    6.05812    4.36587490699471  6.32893831157974 6.27950862503987 6.224170281585677 6.16325406557419
  6   4.382945   7.413598   7.3370314  7.3990602   7.1805463  4.35162754108989  7.56504867535885 7.50215557551101 7.432368289575058 7.35609812651363
  7   4.388244   8.529794   8.52396    8.470368    8.1036005  4.33649102200632  8.63733411113793 8.71172536942482 8.626483820217908 8.53393162343447
  8   4.3843946  8.648758   9.773533   9.636814    9.531543   4.32048483493343  8.60365146569817 9.90743313007699 9.805788399337041 9.69608454120969
  9   4.382037   8.636376   10.946442  10.808677   10.731355  4.30362935946247  8.56831393924896 11.0885309272034 10.96959206472477 10.8419264635863
 10   4.3862925  8.632788   12.088294  12.017653   11.895794  4.28594580761812  8.53136544037112 12.2543088524054 12.11724414046879 11.9708670542606
 11   4.383654   8.648221   13.238337  12.992169   13.136457  4.26745616050560  8.49285128569038 13.4040959130784 13.24813383342107 13.0823563672098
 12   4.3849297  8.645207   14.380529  14.356781   14.271199  4.24818310390553  8.45281806982215 14.5372607463767 14.36169065544633 14.1758849917349
 13   4.3822904  8.640871   15.701377  15.429372   15.27763   4.22814996314503  8.41131353451127 15.6532121559900 15.45738467617184 15.2509840385722
 14   4.3859773  8.64649    16.651937  16.627174   16.290337  4.20738063756687  8.36838643759188 16.5435852409806 16.53472661194586 16.3072249742288
 15   4.384342   8.647351   16.936079  17.74332    17.399305  4.18589953490992  8.32408642237113 16.4499478593076 17.59326775759444 17.3442193113878
 16   4.3852096  8.650699   16.944452  18.654083   0          4.16373150590339  8.27846388801500 16.3538735820476 18.63259976833945 0
 17   4.3816204  8.651032   16.942156  19.805231   0          4.14090177936430  8.23156986148592 16.2554659906516 19.65235429990533 0
 18   4.385799   8.661714   16.939741  0           0          4.11743589807361  8.18345587154990 16.1548291839462 0                 0
 19   4.387892   8.6669855  16.945635  0           0          4.09335965569034  8.13417382533699 16.0520675446992 0                 0
 20   4.3896694  8.661823   0          0           0          4.06869903494575  8.08377588790248 0                0                 0
 21   4.3912406  8.655033   0          0           0          4.04348014734187  8.03231436519861 0                0                 0
 22   4.3861704  0          0          0           0          4.01772917455938  0                0                0                 0
